<svg id="Слой_1" data-name="Слой 1" xmlns="http://www.w3.org/2000/svg" width="18.84" height="18.84" viewBox="0 0 18.84 18.84">
  <defs>
    <style>
      .cls-1 {
        fill: #8c9db7;
        stroke: #8c9db7;
        stroke-linecap: round;
        stroke-linejoin: round;
        stroke-width: 0.22px;
        fill-rule: evenodd;
      }
    </style>
  </defs>
  <title>бронирование_трип</title>
  <g>
    <path class="cls-1" d="M314.39,391.57a0.36,0.36,0,1,0-.67.29,3.42,3.42,0,1,1-3.5-2v0.71a1.53,1.53,0,1,0,.73,0v-0.71a3.41,3.41,0,0,1,.87.21,0.36,0.36,0,1,0,.26-0.68,4.14,4.14,0,0,0-1.13-.26v-0.2a1.78,1.78,0,0,0-1.78-1.78H302a1.78,1.78,0,0,0-1.78,1.78v0.21a2.35,2.35,0,0,0-1.31.66l-2.15,2.15a2.09,2.09,0,0,0-.62,1.49V404a1.72,1.72,0,0,0,1.72,1.72h5.43A1.72,1.72,0,0,0,305,404v-3.55a0.36,0.36,0,0,0-.73,0V404a1,1,0,0,1-1,1h-5.43a1,1,0,0,1-1-1V393.4a1.37,1.37,0,0,1,.4-1l2.15-2.15a1.63,1.63,0,0,1,.8-0.44v1.65a1.45,1.45,0,1,0,.73,0v-1.65a1.63,1.63,0,0,1,.8.44l2.15,2.15a1.37,1.37,0,0,1,.4,1v4.26a0.36,0.36,0,0,0,.73,0V393.4a2.09,2.09,0,0,0-.62-1.49l-2.15-2.15a2.36,2.36,0,0,0-1.31-.66v-0.21a1.06,1.06,0,0,1,1.05-1.05h7.2a1.06,1.06,0,0,1,1.05,1.05v0.2a4.15,4.15,0,0,0-1,8v2.43l-0.5.5a0.36,0.36,0,0,0,0,.51l0.35,0.35-0.35.35a0.36,0.36,0,0,0,0,.51l0.35,0.35-0.35.35a0.36,0.36,0,0,0,0,.51l0.35,0.35-0.35.35a0.36,0.36,0,0,0-.11.26v0a0.36,0.36,0,0,0,.11.26l1.39,1.39a0.36,0.36,0,0,0,.51,0l1.42-1.42a0.36,0.36,0,0,0,.11-0.26v-6.88a4.15,4.15,0,0,0,2.28-5.5h0Zm-13.12,1.32a0.72,0.72,0,1,1-1.09-.62v0.47a0.36,0.36,0,1,0,.73,0v-0.47a0.72,0.72,0,0,1,.36.62h0Zm9-1.6a0.36,0.36,0,0,0,.71,0,0.8,0.8,0,1,1-.71,0h0Zm1.15,12.5h0l-1.05,1.05-0.89-.89,0.36-.36a0.36,0.36,0,0,0,0-.51l-0.35-.35,0.35-.35a0.36,0.36,0,0,0,0-.51l-0.35-.35,0.35-.35a0.36,0.36,0,0,0,0-.51l-0.35-.35,0.35-.35a0.36,0.36,0,0,0,.11-0.26v-2.39a4.17,4.17,0,0,0,1.47,0v6.51h0Z" transform="translate(-296 -387)"/>
    <path class="cls-1" d="M313.54,390.31l0,0a0.36,0.36,0,1,0-.51.51l0,0a0.36,0.36,0,1,0,.52-0.51h0Z" transform="translate(-296 -387)"/>
    <path class="cls-1" d="M304.88,398.85a0.36,0.36,0,1,0,.11.26,0.37,0.37,0,0,0-.11-0.26h0Z" transform="translate(-296 -387)"/>
    <path class="cls-1" d="M302.44,396h-3.78a0.36,0.36,0,0,0-.36.36v6.69a0.36,0.36,0,0,0,.36.36h3.78a0.36,0.36,0,0,0,.36-0.36v-6.69a0.36,0.36,0,0,0-.36-0.36h0Zm-0.36,6.69H299v-6h3.05v6h0Z" transform="translate(-296 -387)"/>
  </g>
</svg>
