<svg xmlns="http://www.w3.org/2000/svg" viewBox="0 0 21 21" width="21" height="21">
	<style>
		tspan { white-space:pre }
		.shp0 { fill: none;stroke: #898991;stroke-linecap:round;stroke-linejoin:round;stroke-width: 0.85 } 
	</style>
	<path id="Layer" class="shp0" d="M17.75,3.66h-14.35" />
	<path id="Layer" class="shp0" d="M17.75,11.66h-14.35" />
	<path id="Layer" class="shp0" d="M10.57,11.66v-8" />
	<path id="Layer" class="shp0" d="M4.26,1.43v0c-0.11,0 -0.22,0.02 -0.33,0.06c-0.1,0.04 -0.2,0.11 -0.28,0.18c-0.08,0.08 -0.14,0.17 -0.18,0.28c-0.04,0.1 -0.06,0.21 -0.06,0.33v14.44c0,0.11 0.02,0.22 0.06,0.33c0.04,0.1 0.11,0.2 0.18,0.28c0.08,0.08 0.17,0.14 0.28,0.18c0.1,0.04 0.21,0.06 0.33,0.06h12.65c0.11,0 0.22,-0.02 0.33,-0.06c0.1,-0.04 0.2,-0.11 0.28,-0.18c0.08,-0.08 0.14,-0.17 0.18,-0.28c0.04,-0.1 0.06,-0.21 0.06,-0.33v-14.44c0,-0.11 -0.02,-0.22 -0.06,-0.33c-0.04,-0.1 -0.11,-0.2 -0.18,-0.28c-0.08,-0.08 -0.17,-0.14 -0.28,-0.18c-0.1,-0.04 -0.21,-0.06 -0.33,-0.06h-12.65zM6.5,13.49c-0.16,0 -0.32,0.03 -0.46,0.09c-0.15,0.06 -0.28,0.15 -0.39,0.26c-0.11,0.11 -0.2,0.25 -0.26,0.39c-0.06,0.15 -0.09,0.3 -0.09,0.46c0,0.49 0.29,0.93 0.75,1.12c0.45,0.19 0.97,0.08 1.32,-0.26c0.35,-0.35 0.45,-0.87 0.26,-1.32c-0.19,-0.45 -0.63,-0.75 -1.12,-0.75zM14.66,13.49c-0.16,0 -0.32,0.03 -0.46,0.09c-0.15,0.06 -0.28,0.15 -0.39,0.26c-0.11,0.11 -0.2,0.25 -0.26,0.39c-0.06,0.15 -0.09,0.3 -0.09,0.46c0,0.49 0.29,0.93 0.75,1.12c0.45,0.19 0.97,0.08 1.32,-0.26c0.35,-0.35 0.45,-0.87 0.26,-1.32c-0.19,-0.45 -0.63,-0.75 -1.12,-0.75zM4.8,17.54v0c-0.03,0 -0.07,0.01 -0.1,0.02c-0.03,0.01 -0.06,0.03 -0.08,0.06c-0.02,0.02 -0.04,0.05 -0.06,0.08c-0.01,0.03 -0.02,0.07 -0.02,0.1v1.76c0,0.03 0.01,0.07 0.02,0.1c0.01,0.03 0.03,0.06 0.06,0.08c0.02,0.02 0.05,0.04 0.08,0.06c0.03,0.01 0.07,0.02 0.1,0.02h2.59c0.03,0 0.07,-0.01 0.1,-0.02c0.03,-0.01 0.06,-0.03 0.08,-0.06c0.02,-0.02 0.04,-0.05 0.06,-0.08c0.01,-0.03 0.02,-0.07 0.02,-0.1v-1.76c0,-0.03 -0.01,-0.07 -0.02,-0.1c-0.01,-0.03 -0.03,-0.06 -0.06,-0.08c-0.02,-0.02 -0.05,-0.04 -0.08,-0.06c-0.03,-0.01 -0.07,-0.02 -0.1,-0.02h-2.61zM13.92,17.54c-0.03,0 -0.07,0.01 -0.1,0.02c-0.03,0.01 -0.06,0.03 -0.08,0.06c-0.02,0.02 -0.04,0.05 -0.06,0.08c-0.01,0.03 -0.02,0.07 -0.02,0.1v1.76c0,0.03 0.01,0.07 0.02,0.1c0.01,0.03 0.03,0.06 0.06,0.08c0.02,0.02 0.05,0.04 0.08,0.06c0.03,0.01 0.07,0.02 0.1,0.02h2.61c0.03,0 0.07,-0.01 0.1,-0.02c0.03,-0.01 0.06,-0.03 0.08,-0.06c0.02,-0.02 0.04,-0.05 0.06,-0.08c0.01,-0.03 0.02,-0.07 0.02,-0.1v-1.76c0,-0.03 -0.01,-0.07 -0.02,-0.1c-0.01,-0.03 -0.03,-0.06 -0.06,-0.08c-0.02,-0.02 -0.05,-0.04 -0.08,-0.06c-0.03,-0.01 -0.07,-0.02 -0.1,-0.02h-2.61zM18.14,3.34c-0.05,0 -0.1,0.01 -0.15,0.03c-0.05,0.02 -0.09,0.05 -0.13,0.08c-0.04,0.04 -0.06,0.08 -0.08,0.13c-0.02,0.05 -0.03,0.1 -0.03,0.15v4.37c0,0.05 0.01,0.1 0.03,0.15c0.02,0.05 0.05,0.09 0.08,0.13c0.04,0.04 0.08,0.06 0.13,0.08c0.05,0.02 0.1,0.03 0.15,0.03h1.2c0.05,0 0.1,-0.01 0.15,-0.03c0.05,-0.02 0.09,-0.05 0.13,-0.08c0.04,-0.04 0.06,-0.08 0.08,-0.13c0.02,-0.05 0.03,-0.1 0.03,-0.15v-4.37c0,-0.05 -0.01,-0.1 -0.03,-0.15c-0.02,-0.05 -0.05,-0.09 -0.08,-0.13c-0.04,-0.04 -0.08,-0.06 -0.13,-0.08c-0.05,-0.02 -0.1,-0.03 -0.15,-0.03h-1.2zM1.8,3.34v0c-0.05,0 -0.1,0.01 -0.15,0.03c-0.05,0.02 -0.09,0.05 -0.13,0.08c-0.04,0.04 -0.06,0.08 -0.08,0.13c-0.02,0.05 -0.03,0.1 -0.03,0.15v4.37c0,0.05 0.01,0.1 0.03,0.15c0.02,0.05 0.05,0.09 0.08,0.13c0.04,0.04 0.08,0.06 0.13,0.08c0.05,0.02 0.1,0.03 0.15,0.03h1.2c0.05,0 0.1,-0.01 0.15,-0.03c0.05,-0.02 0.09,-0.05 0.13,-0.08c0.04,-0.04 0.06,-0.08 0.08,-0.13c0.02,-0.05 0.03,-0.1 0.03,-0.15v-4.37c0,-0.05 -0.01,-0.1 -0.03,-0.15c-0.02,-0.05 -0.05,-0.09 -0.08,-0.13c-0.04,-0.04 -0.08,-0.06 -0.13,-0.08c-0.05,-0.02 -0.1,-0.03 -0.15,-0.03h-1.2z" />
</svg>