<svg xmlns="http://www.w3.org/2000/svg" viewBox="0 0 20 19" width="13" height="12">
	<style>
		tspan { white-space:pre }
		.shp0 { fill: none;stroke: #d71e30;stroke-linecap:round;stroke-linejoin:round;stroke-width: 0.85 } 
	</style>
	<path id="Layer" class="shp0" d="M3.84,3.58c-0.23,0 -0.47,0.04 -0.68,0.12c-0.22,0.08 -0.42,0.2 -0.6,0.36c-0.17,0.15 -0.32,0.34 -0.43,0.55c-0.11,0.21 -0.18,0.43 -0.2,0.67l-1.5,11.35c0.01,0.24 0.06,0.47 0.16,0.69c0.1,0.22 0.25,0.41 0.42,0.57c0.18,0.16 0.39,0.28 0.62,0.35c0.23,0.07 0.47,0.1 0.7,0.08l15.32,0c0.24,0.02 0.48,-0.01 0.7,-0.08c0.23,-0.07 0.44,-0.19 0.62,-0.35c0.18,-0.16 0.32,-0.35 0.42,-0.57c0.1,-0.22 0.16,-0.45 0.16,-0.69l-1.5,-11.35c-0.03,-0.23 -0.09,-0.46 -0.2,-0.67c-0.11,-0.21 -0.25,-0.39 -0.43,-0.55c-0.17,-0.15 -0.38,-0.28 -0.6,-0.36c-0.22,-0.08 -0.45,-0.12 -0.68,-0.12h-12.32zM7,0.43v0c-0.05,0 -0.1,0.01 -0.14,0.03c-0.04,0.02 -0.09,0.05 -0.12,0.08c-0.03,0.03 -0.06,0.08 -0.08,0.12c-0.02,0.04 -0.03,0.09 -0.03,0.14v2.4c0,0.05 0.01,0.1 0.03,0.14c0.02,0.04 0.05,0.09 0.08,0.12c0.03,0.03 0.08,0.06 0.12,0.08c0.04,0.02 0.09,0.03 0.14,0.03h6c0.05,0 0.1,-0.01 0.14,-0.03c0.04,-0.02 0.09,-0.05 0.12,-0.08c0.03,-0.03 0.06,-0.08 0.08,-0.12c0.02,-0.04 0.03,-0.09 0.03,-0.14v-2.41c0,-0.05 -0.01,-0.1 -0.03,-0.14c-0.02,-0.04 -0.05,-0.09 -0.08,-0.12c-0.03,-0.03 -0.08,-0.06 -0.12,-0.08c-0.04,-0.02 -0.09,-0.03 -0.14,-0.03h-6zM13.05,7.95l-6.05,6.05M13,14l-6,-6.05" />
</svg>