<svg xmlns="http://www.w3.org/2000/svg" viewBox="0 0 14 15" width="14" height="15">
	<style>
		tspan { white-space:pre }
		.shp0 { fill: none;stroke: #d71e30;stroke-linecap:round;stroke-linejoin:round;stroke-width: 0.85 } 
	</style>
	<path id="Layer" class="shp0" d="M1.48,3.5c-0.14,0 -0.28,0.03 -0.41,0.08c-0.13,0.05 -0.25,0.13 -0.34,0.23c-0.1,0.1 -0.18,0.22 -0.23,0.34c-0.05,0.13 -0.08,0.27 -0.08,0.41v6.82c0,0.14 0.03,0.28 0.08,0.41c0.05,0.13 0.13,0.25 0.23,0.34c0.1,0.1 0.22,0.18 0.34,0.23c0.13,0.05 0.27,0.08 0.41,0.08h10.08c0.14,0 0.28,-0.03 0.41,-0.08c0.13,-0.05 0.25,-0.13 0.34,-0.23c0.1,-0.1 0.18,-0.22 0.23,-0.34c0.05,-0.13 0.08,-0.27 0.08,-0.41l0,-6.82c0,-0.14 -0.03,-0.28 -0.08,-0.41c-0.05,-0.13 -0.13,-0.25 -0.23,-0.34c-0.1,-0.1 -0.22,-0.18 -0.34,-0.23c-0.13,-0.05 -0.27,-0.08 -0.41,-0.08h-10.08zM4.35,0.42c-0.05,0 -0.09,0.01 -0.14,0.03c-0.04,0.02 -0.08,0.04 -0.12,0.08c-0.03,0.03 -0.06,0.07 -0.08,0.12c-0.02,0.04 -0.03,0.09 -0.03,0.14v2.35c0,0.05 0.01,0.09 0.03,0.14c0.02,0.04 0.04,0.08 0.08,0.12c0.03,0.03 0.07,0.06 0.12,0.08c0.04,0.02 0.09,0.03 0.14,0.03h4.34c0.05,0 0.09,-0.01 0.14,-0.03c0.04,-0.02 0.08,-0.04 0.12,-0.08c0.03,-0.03 0.06,-0.07 0.08,-0.12c0.02,-0.04 0.03,-0.09 0.03,-0.14v-2.35c0,-0.05 -0.01,-0.09 -0.03,-0.14c-0.02,-0.04 -0.04,-0.08 -0.08,-0.12c-0.03,-0.03 -0.07,-0.06 -0.12,-0.08c-0.04,-0.02 -0.09,-0.03 -0.14,-0.03h-4.34zM2.79,13.82v-0.94M10.25,13.82v-0.94M4.89,6.18l3.26,3.26M8.15,6.18l-3.26,3.26" />
</svg>