<svg xmlns="http://www.w3.org/2000/svg" viewBox="0 0 19 20" width="19" height="20">
	<style>
		tspan { white-space:pre }
		.shp0 { fill: #898991;stroke: #898991;stroke-linecap:round;stroke-linejoin:round;stroke-width: 0.22 } 
	</style>
	<g id="Layer">
		<path id="Layer" class="shp0" d="M16.32,11.82c0.23,0 0.45,0.04 0.66,0.13c0.21,0.09 0.4,0.21 0.56,0.37c0.16,0.16 0.29,0.35 0.37,0.56c0.09,0.21 0.13,0.43 0.13,0.66l0,5.51c0,0.04 -0.01,0.09 -0.03,0.13c-0.02,0.04 -0.04,0.08 -0.07,0.11c-0.03,0.03 -0.07,0.06 -0.11,0.07c-0.04,0.02 -0.09,0.03 -0.13,0.03h-1.38c-0.04,0 -0.08,-0.01 -0.11,-0.02c-0.04,-0.01 -0.07,-0.03 -0.1,-0.05c-0.03,-0.02 -0.06,-0.05 -0.08,-0.08c-0.02,-0.03 -0.04,-0.07 -0.04,-0.1l-0.28,-1.12h-13.24l-0.28,1.12c-0.01,0.04 -0.02,0.07 -0.04,0.1c-0.02,0.03 -0.05,0.06 -0.08,0.08c-0.03,0.02 -0.06,0.04 -0.1,0.05c-0.04,0.01 -0.07,0.02 -0.11,0.02h-1.38c-0.04,0 -0.09,-0.01 -0.13,-0.03c-0.04,-0.02 -0.08,-0.04 -0.11,-0.07c-0.03,-0.03 -0.06,-0.07 -0.07,-0.11c-0.02,-0.04 -0.03,-0.09 -0.03,-0.13v-5.51c0,-0.23 0.04,-0.45 0.13,-0.66c0.09,-0.21 0.21,-0.4 0.37,-0.56c0.16,-0.16 0.35,-0.29 0.56,-0.37c0.21,-0.09 0.43,-0.13 0.66,-0.13v-3.1c0,-0.23 0.04,-0.45 0.13,-0.66c0.09,-0.21 0.21,-0.4 0.37,-0.56c0.16,-0.16 0.35,-0.29 0.56,-0.37c0.21,-0.09 0.43,-0.13 0.66,-0.13h11c0.23,0 0.45,0.04 0.66,0.13c0.21,0.09 0.4,0.21 0.56,0.37c0.16,0.16 0.29,0.35 0.37,0.56c0.09,0.21 0.13,0.43 0.13,0.66v3.1zM2.43,8.72v3.1h0.69v-1c0,-0.23 0.04,-0.45 0.13,-0.66c0.09,-0.21 0.21,-0.4 0.37,-0.56c0.16,-0.16 0.35,-0.29 0.56,-0.37c0.21,-0.09 0.43,-0.13 0.66,-0.13h2.07c0.23,0 0.45,0.04 0.66,0.13c0.21,0.09 0.4,0.21 0.56,0.37c0.16,0.16 0.29,0.35 0.37,0.56c0.09,0.21 0.13,0.43 0.13,0.66v1h0.69v-1c0,-0.23 0.04,-0.45 0.13,-0.66c0.09,-0.21 0.21,-0.4 0.37,-0.56c0.16,-0.16 0.35,-0.29 0.56,-0.37c0.21,-0.09 0.43,-0.13 0.66,-0.13h2.07c0.23,0 0.45,0.04 0.66,0.13c0.21,0.09 0.4,0.21 0.56,0.37c0.16,0.16 0.29,0.35 0.37,0.56c0.09,0.21 0.13,0.43 0.13,0.66v1h0.69v-3.1c0,-0.13 -0.03,-0.26 -0.08,-0.38c-0.05,-0.12 -0.12,-0.23 -0.22,-0.32c-0.09,-0.09 -0.2,-0.17 -0.32,-0.22c-0.12,-0.05 -0.25,-0.08 -0.38,-0.08h-11c-0.13,0 -0.26,0.03 -0.38,0.08c-0.12,0.05 -0.23,0.12 -0.32,0.22c-0.09,0.09 -0.17,0.2 -0.22,0.32c-0.05,0.12 -0.08,0.25 -0.08,0.38zM14.17,11.82v-1c0,-0.13 -0.03,-0.26 -0.08,-0.38c-0.05,-0.12 -0.12,-0.23 -0.22,-0.32c-0.09,-0.09 -0.2,-0.17 -0.32,-0.22c-0.12,-0.05 -0.25,-0.08 -0.38,-0.08h-2.07c-0.13,0 -0.26,0.03 -0.38,0.08c-0.12,0.05 -0.23,0.12 -0.32,0.22c-0.09,0.09 -0.17,0.2 -0.22,0.32c-0.05,0.12 -0.08,0.25 -0.08,0.38v1zM8,11.82v-1c0,-0.13 -0.03,-0.26 -0.08,-0.38c-0.05,-0.12 -0.12,-0.23 -0.22,-0.32c-0.09,-0.09 -0.2,-0.17 -0.32,-0.22c-0.12,-0.05 -0.25,-0.08 -0.38,-0.08h-2.1c-0.13,0 -0.26,0.03 -0.38,0.08c-0.12,0.05 -0.23,0.12 -0.32,0.22c-0.09,0.09 -0.17,0.2 -0.22,0.32c-0.05,0.12 -0.08,0.25 -0.08,0.38v1zM1.8,12.51c-0.13,0 -0.26,0.03 -0.38,0.08c-0.12,0.05 -0.23,0.12 -0.32,0.22c-0.09,0.09 -0.17,0.2 -0.22,0.32c-0.05,0.12 -0.08,0.25 -0.08,0.38v1.72h16.5v-1.72c0,-0.13 -0.03,-0.26 -0.08,-0.38c-0.05,-0.12 -0.12,-0.23 -0.22,-0.32c-0.09,-0.09 -0.2,-0.17 -0.32,-0.22c-0.12,-0.05 -0.25,-0.08 -0.38,-0.08zM17.33,16h-16.53v2.71h0.76l0.28,-1.12c0.01,-0.04 0.02,-0.07 0.04,-0.1c0.02,-0.03 0.05,-0.06 0.08,-0.08c0.03,-0.02 0.06,-0.04 0.1,-0.05c0.04,-0.01 0.07,-0.02 0.11,-0.02h13.79c0.04,0 0.08,0.01 0.11,0.02c0.04,0.01 0.07,0.03 0.1,0.05c0.03,0.02 0.06,0.05 0.08,0.08c0.02,0.03 0.04,0.07 0.04,0.1l0.28,1.12h0.76z" />
		<path id="Layer" class="shp0" d="M6.31,2.86c0,-0.36 0.07,-0.72 0.21,-1.06c0.14,-0.33 0.34,-0.64 0.6,-0.9c0.26,-0.26 0.56,-0.46 0.9,-0.6c0.33,-0.14 0.69,-0.21 1.06,-0.21c1.12,0 2.12,0.67 2.55,1.7c0.43,1.03 0.19,2.22 -0.6,3.01c-0.79,0.79 -1.98,1.03 -3.01,0.6c-1.03,-0.43 -1.7,-1.43 -1.7,-2.55zM11.13,2.86c0,-0.27 -0.05,-0.54 -0.16,-0.79c-0.1,-0.25 -0.26,-0.48 -0.45,-0.67c-0.19,-0.19 -0.42,-0.34 -0.67,-0.45c-0.25,-0.1 -0.52,-0.16 -0.79,-0.16c-0.84,0 -1.59,0.5 -1.91,1.28c-0.32,0.77 -0.14,1.66 0.45,2.26c0.59,0.59 1.48,0.77 2.26,0.45c0.77,-0.32 1.28,-1.08 1.28,-1.91z" />
		<path id="Layer" class="shp0" d="M8.7,1.93v1.07c0,0.02 0,0.05 0.01,0.07c0.01,0.02 0.02,0.05 0.03,0.07c0.01,0.02 0.03,0.04 0.05,0.06c0.02,0.02 0.04,0.03 0.06,0.04l1.08,0.54l0.24,-0.48l-0.93,-0.46v-0.91z" />
	</g>
</svg>