<svg id="Слой_1" data-name="Слой 1" xmlns="http://www.w3.org/2000/svg" width="19.75" height="19.75" viewBox="0 0 19.75 19.75">
  <defs>
    <style>
      .cls-1 {
        fill: #8c9db7;
        stroke: #8c9db7;
        stroke-miterlimit: 22.93;
        stroke-width: 0.43px;
        fill-rule: evenodd;
      }
    </style>
  </defs>
  <title>детали поездки</title>
  <g>
    <path class="cls-1" d="M308.72,406.1a0.32,0.32,0,0,1-.28-0.16l-0.77-1.29a1,1,0,0,1-.09-0.92,3.25,3.25,0,0,1,2-1.28,1.23,1.23,0,0,0,.74-1.06,0.31,0.31,0,0,1,0-.06c0-.11.55-2.7,2.23-2.7a2.13,2.13,0,0,1,1.51.44l0.81,0.81a0.32,0.32,0,0,1,.07.34,9.73,9.73,0,0,1-6.12,5.86l-0.1,0h0Zm2.23-4.67a1.89,1.89,0,0,1-1.15,1.63h0a2.72,2.72,0,0,0-1.58.9,0.35,0.35,0,0,0,0,.35l0.64,1.07a9.09,9.09,0,0,0,5.4-5.2l-0.66-.66a1.51,1.51,0,0,0-1.05-.25c-1.07,0-1.54,1.91-1.6,2.15h0Z" transform="translate(-296 -387)"/>
    <path class="cls-1" d="M312.32,392a1.61,1.61,0,1,1,1.61-1.61,1.61,1.61,0,0,1-1.61,1.61h0Zm0-2.58a1,1,0,1,0,1,1,1,1,0,0,0-1-1h0Z" transform="translate(-296 -387)"/>
    <path class="cls-1" d="M312.32,395.59a0.32,0.32,0,0,1-.23-0.1c-0.12-.12-3-3-3-4.87a3.23,3.23,0,1,1,6.44,0c0,1.82-2.87,4.74-3,4.87a0.32,0.32,0,0,1-.23.1h0Zm0-7.73a2.68,2.68,0,0,0-2.58,2.77c0,1.18,1.69,3.23,2.58,4.17,0.89-.95,2.58-3,2.58-4.17a2.68,2.68,0,0,0-2.58-2.77h0Z" transform="translate(-296 -387)"/>
    <path class="cls-1" d="M299.43,403a1.61,1.61,0,1,1,1.61-1.61,1.61,1.61,0,0,1-1.61,1.61h0Zm0-2.58a1,1,0,1,0,1,1,1,1,0,0,0-1-1h0Z" transform="translate(-296 -387)"/>
    <path class="cls-1" d="M299.43,406.54a0.32,0.32,0,0,1-.23-0.1c-0.12-.12-3-3-3-4.87a3.23,3.23,0,1,1,6.44,0c0,1.82-2.87,4.74-3,4.87a0.32,0.32,0,0,1-.23.1h0Zm0-7.73a2.68,2.68,0,0,0-2.58,2.77c0,1.18,1.69,3.23,2.58,4.17,0.89-.95,2.58-3,2.58-4.17a2.68,2.68,0,0,0-2.58-2.77h0Z" transform="translate(-296 -387)"/>
    <path class="cls-1" d="M303.76,406.28a3.66,3.66,0,0,1-1.11-.3l-0.05,0a9.63,9.63,0,0,1-1.37-.62c-0.22-.12-0.43-0.25-0.65-0.39a0.32,0.32,0,0,1-.08-0.47,5.79,5.79,0,0,0,1.5-2.91,2.8,2.8,0,0,0-1.36-2.44,0.32,0.32,0,0,1-.1-0.47,3.23,3.23,0,0,0,.63-1.94,0.81,0.81,0,0,0-.26-0.62,4,4,0,0,0-2.68-.55,2.39,2.39,0,0,1-1.68-.55,0.32,0.32,0,0,1-.1-0.32,9.73,9.73,0,0,1,4.34-6,1.12,1.12,0,0,1,1,.12,2.05,2.05,0,0,1,.63.4,2.63,2.63,0,0,1,.71,1.18,4.75,4.75,0,0,1,.11,2.64,1.8,1.8,0,0,1-.09.2l0,0.06a1.34,1.34,0,0,0,.07,1.31,1.53,1.53,0,0,0,1.25.74,3.51,3.51,0,0,1,3.11,2.26,4.08,4.08,0,0,1,.2.46c0.78,2.24-.86,3.67-2.31,4.94-0.36.31-.69,0.6-1,0.9a1.09,1.09,0,0,0-.33.55,1.64,1.64,0,0,0,0,.48V405a7.52,7.52,0,0,1,.07.92,0.39,0.39,0,0,1-.16.33,0.5,0.5,0,0,1-.3.08h0Zm-2.53-1.68,0.31,0.18a9.06,9.06,0,0,0,1.28.58l0.06,0a6.3,6.3,0,0,0,.69.22c0-.19,0-0.38-0.06-0.56V405a2.16,2.16,0,0,1,0-.68,1.7,1.7,0,0,1,.51-0.9c0.31-.31.65-0.62,1-0.94,1.36-1.19,2.76-2.42,2.12-4.24a3.41,3.41,0,0,0-.16-0.39,2.91,2.91,0,0,0-2.55-1.9,2.18,2.18,0,0,1-1.79-1,2,2,0,0,1-.1-1.93l0-.07a1.06,1.06,0,0,0,.06-0.12,4.11,4.11,0,0,0-.12-2.22,2,2,0,0,0-.53-0.9,1.43,1.43,0,0,0-.44-0.27,1.94,1.94,0,0,0-.44-0.14,9.08,9.08,0,0,0-4,5.41,1.79,1.79,0,0,0,1.08.28,4.58,4.58,0,0,1,3.15.72,1.45,1.45,0,0,1,.46,1.09,3.91,3.91,0,0,1-.57,2,3.48,3.48,0,0,1,1.4,2.81,5.72,5.72,0,0,1-1.42,3h0Z" transform="translate(-296 -387)"/>
    <path class="cls-1" d="M305.88,406.54a9.62,9.62,0,0,1-5.29-1.58,0.32,0.32,0,0,1-.08-0.47,5.8,5.8,0,0,0,1.5-2.91,2.68,2.68,0,0,0-2.58-2.77A2.53,2.53,0,0,0,297.3,400a0.32,0.32,0,0,1-.58-0.07,9.66,9.66,0,0,1,9.16-12.75,9.56,9.56,0,0,1,4.43,1.07,0.32,0.32,0,0,1,.1.49,2.88,2.88,0,0,0-.66,1.85c0,1.18,1.69,3.23,2.58,4.17a18,18,0,0,0,1.72-2.14,0.33,0.33,0,0,1,.29-0.14,0.32,0.32,0,0,1,.27.18,9.57,9.57,0,0,1,.95,4.17,9.68,9.68,0,0,1-9.67,9.66h0Zm-4.64-1.93a9,9,0,0,0,13-11.11,19.68,19.68,0,0,1-1.69,2,0.33,0.33,0,0,1-.46,0c-0.12-.12-3-3-3-4.87a3.54,3.54,0,0,1,.57-1.93,8.91,8.91,0,0,0-3.79-.84,9,9,0,0,0-8.72,11.31,3.12,3.12,0,0,1,2.28-1,3.33,3.33,0,0,1,3.22,3.41,5.73,5.73,0,0,1-1.42,3h0Z" transform="translate(-296 -387)"/>
    <path class="cls-1" d="M303.3,400.42a0.32,0.32,0,0,1-.27-0.49s0.2-.33.56-0.82a0.32,0.32,0,0,1,.52.38c-0.34.46-.53,0.77-0.53,0.78a0.32,0.32,0,0,1-.27.15h0Z" transform="translate(-296 -387)"/>
    <path class="cls-1" d="M304.89,398.32a0.32,0.32,0,0,1-.24-0.53,16.72,16.72,0,0,1,1.19-1.22,0.32,0.32,0,0,1,.44.47,16,16,0,0,0-1.14,1.18,0.32,0.32,0,0,1-.24.11h0Zm2.46-2.26a0.32,0.32,0,0,1-.19-0.59,9.46,9.46,0,0,1,1.5-.87,0.32,0.32,0,1,1,.27.59,8.85,8.85,0,0,0-1.39.81,0.32,0.32,0,0,1-.19.06h0Z" transform="translate(-296 -387)"/>
    <path class="cls-1" d="M310.39,394.71a0.32,0.32,0,0,1-.06-0.64,5.81,5.81,0,0,1,1-.09,0.32,0.32,0,0,1,0,.64,5.14,5.14,0,0,0-.9.08h-0.06Z" transform="translate(-296 -387)"/>
  </g>
</svg>
