<svg id="Слой_1" data-name="Слой 1" xmlns="http://www.w3.org/2000/svg" width="25.34" height="25.34" viewBox="0 0 25.34 25.34">
  <defs>
    <style>
      .cls-1 {
        fill: #1396e4;
        stroke: #1396e4;
        stroke-miterlimit: 22.93;
        stroke-width: 0.57px;
        fill-rule: evenodd;
      }
    </style>
  </defs>
  <title>метка</title>
  <g>
    <path class="cls-1" d="M305.67,395a2.89,2.89,0,1,0-2.89-2.89,2.89,2.89,0,0,0,2.89,2.89h0Zm0-5a2.06,2.06,0,1,1-2.06,2.06,2.07,2.07,0,0,1,2.06-2.06h0Z" transform="translate(-293 -384)"/>
    <path class="cls-1" d="M305.6,406.89l6.33-9.15a9,9,0,0,0-.74-11.14,7.92,7.92,0,0,0-11.2,0,9,9,0,0,0-.75,11.13l6.34,9.16h0Zm-5-19.71a7.09,7.09,0,0,1,10,0,8.15,8.15,0,0,1,.65,10.07l-5.67,8.18-5.67-8.19a8.15,8.15,0,0,1,.66-10.06h0Z" transform="translate(-293 -384)"/>
    <path class="cls-1" d="M310.67,402a0.41,0.41,0,0,0-.1.82c4.34,0.51,6.66,1.89,6.66,2.69,0,1.12-4.4,2.68-11.56,2.68s-11.56-1.56-11.56-2.68c0-.8,2.31-2.18,6.66-2.69a0.41,0.41,0,1,0-.1-0.82c-4.35.51-7.38,2-7.38,3.51,0,1.74,4.25,3.51,12.39,3.51s12.39-1.77,12.39-3.51c0-1.55-3-3-7.38-3.51h0Z" transform="translate(-293 -384)"/>
  </g>
</svg>
