<svg id="Слой_1" data-name="Слой 1" xmlns="http://www.w3.org/2000/svg" width="17.35" height="12.47" viewBox="0 0 17.35 12.47">
  <defs>
    <style>
      .cls-1 {
        fill: none;
        stroke: #1396e4;
        stroke-linecap: round;
        stroke-linejoin: round;
        stroke-width: 0.85px;
      }
    </style>
  </defs>
  <title>метро</title>
  <polygon class="cls-1" points="8.67 12.04 11.35 7.39 12.47 10.54 11.57 10.54 11.57 11.93 16.92 11.93 16.92 10.54 15.9 10.54 12.05 0.42 8.67 6.65 5.29 0.42 1.45 10.54 0.42 10.54 0.42 11.93 5.78 11.93 5.78 10.54 4.88 10.54 5.99 7.39 8.67 12.04 8.67 12.04"/>
</svg>
