<svg id="Слой_1" data-name="Слой 1" xmlns="http://www.w3.org/2000/svg" width="19.64" height="15.65" viewBox="0 0 19.64 15.65">
  <defs>
    <style>
      .cls-1 {
        fill: none;
        stroke: #1496e4;
        stroke-linecap: round;
        stroke-linejoin: round;
        stroke-width: 0.85px;
      }
    </style>
  </defs>
  <title>wifi</title>
  <path class="cls-1" d="M305.82,404.23a1.64,1.64,0,1,1,1.64-1.64,1.64,1.64,0,0,1-1.64,1.64h0Zm0-2.71a1.07,1.07,0,1,0,1.07,1.07,1.07,1.07,0,0,0-1.07-1.07h0Zm3.76-2.41a0.29,0.29,0,0,1-.2-0.08,5,5,0,0,0-7.12,0,0.28,0.28,0,0,1-.4-0.4,5.6,5.6,0,0,1,7.93,0,0.28,0.28,0,0,1-.2.49h0Zm2.68-2.68a0.29,0.29,0,0,1-.2-0.08,8.83,8.83,0,0,0-12.47,0,0.28,0.28,0,0,1-.4-0.4,9.4,9.4,0,0,1,13.28,0,0.28,0.28,0,0,1-.2.49h0Zm2.68-2.68a0.29,0.29,0,0,1-.2-0.08,12.62,12.62,0,0,0-17.82,0,0.28,0.28,0,0,1-.4-0.4,13.19,13.19,0,0,1,18.63,0,0.28,0.28,0,0,1-.2.49h0Z" transform="translate(-296 -389)"/>
</svg>
